Ajay Shankar A - CYCLIST BIKE SHARE
…
Comparing variation in ride lengths of average and total ride lengths by bike type.

Aggregating data for the visualization.

rides_on_days <- data_one_year %>%
  mutate(day = wday(started_at, label = TRUE, abbr = FALSE),
         month = month(started_at, label = TRUE, abbr = FALSE)) %>% 
  summarise(ride_count = n(),
            sum_ride_length = sum(ride_length, na.rm = TRUE),
            avg_ride_length = mean(ride_length, na.rm = TRUE),
            .by = c(month, day, member_casual))

rides_on_days 

# A tibble: 168 × 6
   month day       member_casual ride_count sum_ride_length avg_ride_length
   <ord> <ord>     <chr>              <int>           <dbl>           <dbl>
 1 July  Wednesday member             45928         603429.            13.1
 2 July  Sunday    member             44328         685475.            15.5
 3 July  Wednesday casual             31631         703360.            22.2
 4 July  Saturday  member             51852         816009.            15.7
 5 July  Thursday  casual             34895         759013.            21.8
 6 July  Friday    member             46398         614466.            13.2
 7 July  Friday    casual             41198         959168.            23.3
 8 July  Monday    casual             32960         917333.            27.8
 9 July  Monday    member             38746         530041.            13.7
10 July  Sunday    casual             59528        1714086.            28.8
# ℹ 158 more rows
…
