Ajay Shankar A - CYCLIST BIKE SHARE
…
Comparing variation in ride lengths of average and total ride lengths by bike type.

Aggregating data for the visualization.

rides_on_days <- data_one_year %>%
  mutate(day = wday(started_at, label = TRUE, abbr = FALSE),
         month = month(started_at, label = TRUE, abbr = FALSE)) %>% 
  summarise(ride_count = n(),
            sum_ride_length = sum(ride_length, na.rm = TRUE),
            avg_ride_length = mean(ride_length, na.rm = TRUE),
            .by = c(month, day, member_casual))

rides_on_days

# A tibble: 168 × 6
   month day       member_casual ride_count sum_ride_length avg_ride_length
   <ord> <ord>     <chr>              <int>           <dbl>           <dbl>
 1 July  Wednesday member             47725         605175.            12.7
 2 July  Saturday  casual             74543        2057158.            27.6
 3 July  Tuesday   member             46360         588327.            12.7
 4 July  Tuesday   casual             31415         705946.            22.5
 5 July  Saturday  member             53796         817724.            15.2
 6 July  Friday    casual             42333         960160             22.7
 7 July  Thursday  casual             35800         759804.            21.2
 8 July  Sunday    casual             61198        1715527.            28.0
 9 July  Thursday  member             48572         623503.            12.8
10 July  Friday    member             48221         616243.            12.8
# ℹ 158 more rows
…
