Ajay Shankar A - Predict Price of Diamonds
…
Introduction

Building a model to predict the price of the diamonds using tidymodels.

Diamonds data set is readily available to use through the ggplot2 library in the tidyverse and we will be using this data set predict the prices of the other diamonds.

In the data set various parameters of diamonds are given and each of these parameters may or may not effect the price of the diamonds.

library(tidyverse)

data("diamonds")
diamonds

# A tibble: 53,940 × 10
   carat cut       color clarity depth table price     x     y     z
   <dbl> <ord>     <ord> <ord>   <dbl> <dbl> <int> <dbl> <dbl> <dbl>
 1  0.23 Ideal     E     SI2      61.5    55   326  3.95  3.98  2.43
 2  0.21 Premium   E     SI1      59.8    61   326  3.89  3.84  2.31
 3  0.23 Good      E     VS1      56.9    65   327  4.05  4.07  2.31
 4  0.29 Premium   I     VS2      62.4    58   334  4.2   4.23  2.63
 5  0.31 Good      J     SI2      63.3    58   335  4.34  4.35  2.75
 6  0.24 Very Good J     VVS2     62.8    57   336  3.94  3.96  2.48
 7  0.24 Very Good I     VVS1     62.3    57   336  3.95  3.98  2.47
 8  0.26 Very Good H     SI1      61.9    55   337  4.07  4.11  2.53
 9  0.22 Fair      E     VS2      65.1    61   337  3.87  3.78  2.49
10  0.23 Very Good H     VS1      59.4    61   338  4     4.05  2.39
# ℹ 53,930 more rows
…
The diamonds data set is available to explore in ggplot2 library as mentioned above.

Let’s check for NA’s before exploring the data

diamonds %>% map( ~sum(is.na(.))) %>% unlist()

  carat     cut   color clarity   depth   table   price       x       y       z 
      0       0       0       0       0       0       0       0       0       0 

It’s really good that there are no NA’s but we have to be careful of the 0 in the numeric columns.

diamonds %>% select(carat, x, y, z) %>% arrange(x, y, z)

# A tibble: 53,940 × 4
   carat     x     y     z
   <dbl> <dbl> <dbl> <dbl>
 1  1     0     0     0   
 2  1.14  0     0     0   
 3  1.56  0     0     0   
 4  1.2   0     0     0   
 5  2.25  0     0     0   
 6  0.71  0     0     0   
 7  0.71  0     0     0   
 8  1.07  0     6.62  0   
 9  0.2   3.73  3.68  2.31
10  0.2   3.73  3.71  2.33
# ℹ 53,930 more rows

Diamonds cannot have a x(length), y(width), z(depth) of 0 and have weight. So let’s replace these values with NA or we can remove them out completely too.

diamonds %>% mutate(x = if_else(x == "0", NA, x),
                    y = if_else(y == "0", NA, y),
                    z = if_else(y == "0", NA, z))

# A tibble: 53,940 × 10
   carat cut       color clarity depth table price     x     y     z
   <dbl> <ord>     <ord> <ord>   <dbl> <dbl> <int> <dbl> <dbl> <dbl>
 1  0.23 Ideal     E     SI2      61.5    55   326  3.95  3.98  2.43
 2  0.21 Premium   E     SI1      59.8    61   326  3.89  3.84  2.31
 3  0.23 Good      E     VS1      56.9    65   327  4.05  4.07  2.31
 4  0.29 Premium   I     VS2      62.4    58   334  4.2   4.23  2.63
 5  0.31 Good      J     SI2      63.3    58   335  4.34  4.35  2.75
 6  0.24 Very Good J     VVS2     62.8    57   336  3.94  3.96  2.48
 7  0.24 Very Good I     VVS1     62.3    57   336  3.95  3.98  2.47
 8  0.26 Very Good H     SI1      61.9    55   337  4.07  4.11  2.53
 9  0.22 Fair      E     VS2      65.1    61   337  3.87  3.78  2.49
10  0.23 Very Good H     VS1      59.4    61   338  4     4.05  2.39
# ℹ 53,930 more rows
…
