Ajay Shankar A - Predict the sex of the Penguin Species
…
Building a model to predict the sex of three species of penguins of Palmer Penguins data.

Tip

This is my first Machine Learning project and I am still learning as of this date. This work is inspired by Julia Silge and you can find the original work by her in her blog and would like to thank her for the teachings in Julia Silge -Youtube channel

Exploring the data

library(tidyverse)

library(palmerpenguins)

penguins

# A tibble: 344 × 8
   species island    bill_length_mm bill_depth_mm flipper_length_mm body_mass_g
   <fct>   <fct>              <dbl>         <dbl>             <int>       <int>
 1 Adelie  Torgersen           39.1          18.7               181        3750
 2 Adelie  Torgersen           39.5          17.4               186        3800
 3 Adelie  Torgersen           40.3          18                 195        3250
 4 Adelie  Torgersen           NA            NA                  NA          NA
 5 Adelie  Torgersen           36.7          19.3               193        3450
 6 Adelie  Torgersen           39.3          20.6               190        3650
 7 Adelie  Torgersen           38.9          17.8               181        3625
 8 Adelie  Torgersen           39.2          19.6               195        4675
 9 Adelie  Torgersen           34.1          18.1               193        3475
10 Adelie  Torgersen           42            20.2               190        4250
# ℹ 334 more rows
# ℹ 2 more variables: sex <fct>, year <int>
…
From the above graph it looks like female penguins have smaller with differet bills. Now let’s build a model but first remove year and island from the model.

penguins_df <- penguins %>% filter(!is.na(sex)) %>% select(-year, -island)

penguins_df

# A tibble: 333 × 6
   species bill_length_mm bill_depth_mm flipper_length_mm body_mass_g sex   
   <fct>            <dbl>         <dbl>             <int>       <int> <fct> 
 1 Adelie            39.1          18.7               181        3750 male  
 2 Adelie            39.5          17.4               186        3800 female
 3 Adelie            40.3          18                 195        3250 female
 4 Adelie            36.7          19.3               193        3450 female
 5 Adelie            39.3          20.6               190        3650 male  
 6 Adelie            38.9          17.8               181        3625 female
 7 Adelie            39.2          19.6               195        4675 male  
 8 Adelie            41.1          17.6               182        3200 female
 9 Adelie            38.6          21.2               191        3800 male  
10 Adelie            34.6          21.1               198        4400 male  
# ℹ 323 more rows
…
penguin_split <- initial_split(penguins_df, strata = sex)

penguins_train <- training(penguin_split)
penguins_test <- testing(penguin_split)

As data for building a model is not that large, let’s create resamples of training data to evaluate the model.

set.seed(123)
penguin_boot <- bootstraps(penguins_train)

penguin_boot

# Bootstrap sampling 
# A tibble: 25 × 2
   splits           id         
   <list>           <chr>      
 1 <split [249/93]> Bootstrap01
 2 <split [249/91]> Bootstrap02
 3 <split [249/90]> Bootstrap03
 4 <split [249/91]> Bootstrap04
 5 <split [249/85]> Bootstrap05
 6 <split [249/87]> Bootstrap06
 7 <split [249/94]> Bootstrap07
 8 <split [249/88]> Bootstrap08
 9 <split [249/95]> Bootstrap09
10 <split [249/89]> Bootstrap10
# ℹ 15 more rows
…
→ A | warning: glm.fit: fitted probabilities numerically 0 or 1 occurred

There were issues with some computations   A: x1

There were issues with some computations   A: x3

glm_rs

# Resampling results
# Bootstrap sampling 
# A tibble: 25 × 5
   splits           id          .metrics         .notes           .predictions
   <list>           <chr>       <list>           <list>           <list>      
 1 <split [249/93]> Bootstrap01 <tibble [2 × 4]> <tibble [0 × 3]> <tibble>    
 2 <split [249/91]> Bootstrap02 <tibble [2 × 4]> <tibble [0 × 3]> <tibble>    
 3 <split [249/90]> Bootstrap03 <tibble [2 × 4]> <tibble [0 × 3]> <tibble>    
 4 <split [249/91]> Bootstrap04 <tibble [2 × 4]> <tibble [0 × 3]> <tibble>    
 5 <split [249/85]> Bootstrap05 <tibble [2 × 4]> <tibble [1 × 3]> <tibble>    
 6 <split [249/87]> Bootstrap06 <tibble [2 × 4]> <tibble [0 × 3]> <tibble>    
 7 <split [249/94]> Bootstrap07 <tibble [2 × 4]> <tibble [0 × 3]> <tibble>    
 8 <split [249/88]> Bootstrap08 <tibble [2 × 4]> <tibble [1 × 3]> <tibble>    
 9 <split [249/95]> Bootstrap09 <tibble [2 × 4]> <tibble [0 × 3]> <tibble>    
10 <split [249/89]> Bootstrap10 <tibble [2 × 4]> <tibble [0 × 3]> <tibble>    
# ℹ 15 more rows
…
Second, we can fit the random forest model.

rf_rs <- penguin_wf %>%
  add_model(rf_spec) %>%
  fit_resamples(
    resamples = penguin_boot,
    control = control_resamples(save_pred = TRUE)
  )

rf_rs

# Resampling results
# Bootstrap sampling 
# A tibble: 25 × 5
   splits           id          .metrics         .notes           .predictions
   <list>           <chr>       <list>           <list>           <list>      
 1 <split [249/93]> Bootstrap01 <tibble [2 × 4]> <tibble [0 × 3]> <tibble>    
 2 <split [249/91]> Bootstrap02 <tibble [2 × 4]> <tibble [0 × 3]> <tibble>    
 3 <split [249/90]> Bootstrap03 <tibble [2 × 4]> <tibble [0 × 3]> <tibble>    
 4 <split [249/91]> Bootstrap04 <tibble [2 × 4]> <tibble [0 × 3]> <tibble>    
 5 <split [249/85]> Bootstrap05 <tibble [2 × 4]> <tibble [0 × 3]> <tibble>    
 6 <split [249/87]> Bootstrap06 <tibble [2 × 4]> <tibble [0 × 3]> <tibble>    
 7 <split [249/94]> Bootstrap07 <tibble [2 × 4]> <tibble [0 × 3]> <tibble>    
 8 <split [249/88]> Bootstrap08 <tibble [2 × 4]> <tibble [0 × 3]> <tibble>    
 9 <split [249/95]> Bootstrap09 <tibble [2 × 4]> <tibble [0 × 3]> <tibble>    
10 <split [249/89]> Bootstrap10 <tibble [2 × 4]> <tibble [0 × 3]> <tibble>    
# ℹ 15 more rows
…
